<svg width="90" height="83" viewBox="0 0 90 83" fill="none" xmlns="http://www.w3.org/2000/svg">
<path fill-rule="evenodd" clip-rule="evenodd" d="M53.6001 26.7C53.6001 26.6 53.5001 26.5 53.5001 26.4C53.4001 26.3 53.3001 26.3 53.2001 26.3L46.3001 26.9C46.1001 26.9 45.9001 27.1 45.9001 27.3V28.9C45.9001 29 46.0001 29.1 46.0001 29.2C46.1001 29.3 46.2001 29.3 46.3001 29.3C46.3001 29.3 46.6001 29.3 47.5001 29.2H47.6001C47.8001 29.2 48.0001 29.3 48.2001 29.5C48.6001 29.9 48.7001 30.7 48.5001 31.5C48.3001 32.8 45.5001 43.3 44.5001 47.3C43.6001 44.5 41.8001 38.3 40.6001 34.4L43.8001 23C49.8001 22.8 57.2001 22.5 63.1001 22.4C63.3001 22.4 63.5001 22.2 63.5001 22L63.7001 20.5V20.4C63.7001 20.2 63.5001 20 63.3001 20H44.5001L49.3001 2.8C49.3001 2.7 49.6001 1.7 49.2001 1C48.8001 0.1 47.8001 0 47.4001 0C47.3001 0 47.3001 0 47.2001 0H1.8001C1.6001 0 0.800098 0 0.300098 0.5C-0.199902 1.2 9.76473e-05 2.1 0.100098 2.2L21.9001 81C22.1001 81.7 23.0001 83 24.8001 83C26.6001 83 27.4001 81.8 27.6001 81.1L37.7001 44.8C38.9001 49.6 40.0001 53.9 40.1001 54C40.1001 54.2 40.3001 54.3 40.5001 54.3H45.4001C45.6001 54.3 45.8001 54.2 45.8001 54C45.9001 53.8 50.9001 32.9 51.5001 30.3C51.7001 29.7 52.0001 29.2 52.5001 29C52.9001 28.8 53.2001 28.8 53.2001 28.8C53.4001 28.8 53.6001 28.6 53.6001 28.4V26.7ZM46.2001 28.8C46.2001 28.8 46.5001 28.8 47.4001 28.7C46.5001 28.8 46.2001 28.8 46.2001 28.8ZM63.1001 20.3L62.9001 21.8L63.1001 20.3ZM48.9001 1.1C49.0001 1.4 49.0001 1.8 49.0001 2.1C49.0001 1.8 49.0001 1.4 48.9001 1.1ZM47.3001 37.8C46.0001 42.8 44.5001 48.9 44.5001 48.9C44.4001 48.8 46.0001 42.8 47.3001 37.8ZM47.9001 35.5C47.8001 36 47.6001 36.5 47.5001 37C47.6001 36.6 47.7001 36 47.9001 35.5ZM0.700098 0.8L0.800098 0.7C0.800098 0.7 0.800098 0.8 0.700098 0.8C0.700098 0.9 0.600098 1 0.600098 1C0.600098 1 0.700098 0.9 0.700098 0.8ZM22.3001 80.8L0.500098 2.1L22.3001 80.8C22.3001 80.8 22.5001 81.3 23.0001 81.8C22.5001 81.4 22.3001 80.8 22.3001 80.8ZM24.8001 81.1C24.3001 81.1 24.0001 80.8 23.9001 80.6C24.0001 80.8 24.3001 81.1 24.8001 81.1ZM24.8001 80.6C24.4001 80.6 24.2001 80.3 24.2001 80.2L6.5001 16.6H43.0001L42.1001 19.8H16.4001C16.2001 19.8 16.0001 19.9 16.0001 20.2L13.6001 32C13.6001 32.1 13.6001 32.3 13.7001 32.4C13.8001 32.5 13.9001 32.6 14.0001 32.6H15.2001C15.4001 32.6 15.6001 32.5 15.6001 32.3C17.6001 25.7 22.0001 24.8 23.4001 24.8V50C23.4001 51.2 22.1001 51.5 21.0001 51.5C20.6001 51.5 20.3001 51.5 20.3001 51.5C20.3001 51.5 20.3001 51.5 20.2001 51.5C20.1001 51.5 20.0001 51.5 19.9001 51.6C19.8001 51.7 19.7001 51.8 19.7001 51.9V53.9C19.7001 54.1 19.9001 54.3 20.1001 54.3H32.3001L25.1001 80.4C25.2001 80.5 25.1001 80.6 24.8001 80.6ZM31.3001 51C31.0001 50.7 30.9001 50.3 30.9001 50V24.6C30.9001 24 30.9001 23.1 32.1001 22.9C30.9001 23.1 30.9001 24 30.9001 24.6V50C30.9001 50.3 31.0001 50.7 31.3001 51ZM23.9001 50C23.9001 50.2 23.9001 50.4 23.8001 50.5C23.8001 50.4 23.9001 50.2 23.9001 50ZM23.8001 24.2C23.8001 24.2 23.9001 24.2 23.8001 24.2C23.9001 24.2 23.9001 24.2 23.8001 24.2ZM25.7001 80.6C25.7001 80.7 25.6001 80.8 25.5001 80.9C25.6001 80.8 25.7001 80.7 25.7001 80.6L33.0001 54.3L25.7001 80.6ZM33.2001 51.8C33.0001 51.8 32.8001 51.7 32.6001 51.7C32.8001 51.8 33.0001 51.8 33.2001 51.8ZM33.3001 51.4C32.0001 51.2 31.3001 50.6 31.3001 50V24.6C31.3001 23.9 31.4001 23.5 32.2001 23.3C32.6001 23.2 36.2001 23.1 41.2001 22.9L40.0001 27.3L32.4001 27.9C32.2001 27.9 32.0001 28.1 32.0001 28.3V30C32.0001 30.2 32.1001 30.3 32.3001 30.4C33.4001 30.8 34.2001 31.5 34.4001 32.3C34.5001 32.7 35.4001 36.1 36.4001 40.2L33.3001 51.4ZM32.5001 28.3V30C33.4001 30.4 34.2001 30.9 34.6001 31.6C34.2001 31 33.5001 30.4 32.5001 30V28.3L39.9001 27.7L32.5001 28.3ZM39.2001 30.1C39.1001 30.3 39.0001 30.5 39.0001 30.7C39.0001 30.5 39.1001 30.3 39.2001 30.1ZM45.2001 53.9H40.3001C40.3001 53.9 39.1001 49.1 37.8001 43.9C39.1001 49 40.3001 53.9 40.3001 53.9H45.2001C45.2001 53.9 45.7001 51.7 46.5001 48.7C45.8001 51.7 45.2001 53.9 45.2001 53.9ZM89.6001 19.9H82.0001C81.8001 19.9 81.6001 20.1 81.6001 20.3V22.3C81.6001 22.5 81.8001 22.7 82.0001 22.7C83.3001 22.7 83.8001 22.9 84.0001 23C84.1001 23.1 84.1001 23.2 84.1001 23.5V43.3L72.1001 20.1C72.0001 20 71.9001 19.9 71.7001 19.9H64.3001C64.1001 19.9 63.9001 20.1 63.9001 20.3V22.2C63.9001 22.4 64.1001 22.6 64.3001 22.6C65.9001 22.6 65.9001 23.1 65.9001 23.6V50C65.9001 50.7 65.7001 51.1 65.3001 51.4C64.9001 51.6 64.4001 51.7 64.1001 51.7C63.8001 51.7 63.6001 51.7 63.6001 51.7H63.5001C63.4001 51.7 63.3001 51.7 63.2001 51.8C63.2001 51.8 63.2001 51.8 63.2001 51.9C63.1001 51.8 63.0001 51.7 62.8001 51.7C62.4001 51.7 61.1001 51.6 61.1001 50.7V29.1H63.2001C63.4001 29.1 63.6001 28.9 63.6001 28.7V25.9C63.6001 25.8 63.5001 25.7 63.5001 25.6C63.4001 25.5 63.3001 25.5 63.2001 25.5L54.3001 26.2C54.1001 26.2 53.9001 26.4 53.9001 26.6V28.6C53.9001 28.8 54.1001 29 54.3001 29C54.8001 29 55.2001 29 55.4001 29.1C55.4001 29.1 55.5001 29.1 55.5001 29.4V50.6C55.5001 51.3 55.0001 51.6 54.2001 51.6C54.1001 51.6 54.0001 51.6 54.0001 51.6C53.9001 51.6 53.8001 51.6 53.7001 51.7C53.6001 51.8 53.6001 51.9 53.6001 52V53.9C53.6001 54.1 53.8001 54.3 54.0001 54.3H62.8001C62.9001 54.3 63.1001 54.2 63.1001 54.1C63.2001 54.2 63.3001 54.3 63.4001 54.3H71.6001C71.8001 54.3 72.0001 54.1 72.0001 53.9V52.3C72.0001 52.1 71.8001 51.9 71.6001 51.9C69.8001 51.9 68.8001 51.2 68.8001 50.1V29.8L81.3001 54.1C81.4001 54.2 81.5001 54.3 81.7001 54.3H86.8001C87.0001 54.3 87.2001 54.1 87.2001 53.9V23.5C87.2001 22.9 87.6001 22.7 89.1001 22.7H89.3001H89.5001C89.7001 22.7 89.9001 22.5 89.9001 22.3V20.3C90.0001 20.1 89.8001 19.9 89.6001 19.9ZM64.3001 22.2V20.3V22.2C64.7001 22.2 65.0001 22.2 65.3001 22.3C65.0001 22.3 64.7001 22.2 64.3001 22.2ZM54.8001 28.6C55.2001 28.6 55.5001 28.6 55.6001 28.7C55.4001 28.6 55.2001 28.6 54.8001 28.6ZM69.6001 51.9C68.8001 51.5 68.4001 50.8 68.4001 50.1V28V50C68.4001 50.7 68.7001 51.4 69.6001 51.9ZM84.5001 45.1L71.7001 20.3L84.5001 45.1ZM89.6001 22.3V20.3V22.3Z" fill="#255DA0"/>
</svg>
